Command line:
   PC_Test_isim_beh.exe
     -simmode  gui
     -simrunnum  0
     -socket  50751

Fri Jan 15 01:24:53 2021


 Elaboration Time: 0.078125 sec

 Current Memory Usage: 5154.23 Meg

 Total Signals          : 7
 Total Nets             : 97
 Total Signal Drivers   : 4
 Total Blocks           : 3
 Total Primitive Blocks : 2
 Total Processes        : 2
 Total Traceable Variables  : 8
 Total Scalar Nets and Variables : 457

 Total Simulation Time: 0.09375 sec

 Current Memory Usage: 4996.95 Meg

Fri Jan 15 01:26:32 2021

